vhdl work "../../src/user/clk_gen/clk_gen.vhd"
vhdl work "../../src/system/pcie/sys_pcie/pcie_core/pcie_bram_v6.vhd"
vhdl work "../../src/system/pcie/sys_pcie/pcie_core/gtx_tx_sync_rate_v6.vhd"
vhdl work "../../src/system/pcie/sys_pcie/pcie_core/gtx_rx_valid_filter_v6.vhd"
vhdl work "../../src/system/pcie/sys_pcie/pcie_core/gtx_drp_chanalign_fix_3752_v6.vhd"
vhdl work "../../src/user/usr/user_sys_pcie_constants_package.vhd"
vhdl work "../../src/system/pcie/sys_pcie/pcie_core/pcie_pipe_misc_v6.vhd"
vhdl work "../../src/system/pcie/sys_pcie/pcie_core/pcie_pipe_lane_v6.vhd"
vhdl work "../../src/system/pcie/sys_pcie/pcie_core/pcie_brams_v6.vhd"
vhdl work "../../src/system/pcie/sys_pcie/pcie_core/gtx_wrapper_v6.vhd"
vhdl work "../../src/system/ethernet/ipcore_dir/physical/v6_gtxwizard_gtx.vhd"
vhdl work "../../src/system/ethernet/ipcore_dir/physical/double_reset.vhd"
vhdl work "../../../../ipbus_2_0_v1/firmware/ipbus_core/hdl/ipbus_trans_decl.vhd"
vhdl work "../../../../ipbus_2_0_v1/firmware/ipbus_core/hdl/ipbus_package.vhd"
vhdl work "../../src/system/pcie/sys_pcie/pcie_core/pcie_upconfig_fix_3451_v6.vhd"
vhdl work "../../src/system/pcie/sys_pcie/pcie_core/pcie_pipe_v6.vhd"
vhdl work "../../src/system/pcie/sys_pcie/pcie_core/pcie_gtx_v6.vhd"
vhdl work "../../src/system/pcie/sys_pcie/pcie_core/pcie_bram_top_v6.vhd"
vhdl work "../../src/system/pcie/sys_pcie/ezdma2_ipbus_int/ezdma2_ipbus_int_addr_enc.vhd"
vhdl work "../../src/system/pcie/sys_pcie/ezdma2_ipbus_int/cores/slv_wr_fifo/slv_wr_fifo.vhd"
vhdl work "../../src/system/pcie/sys_pcie/ezdma2_ipbus_int/cores/slv_rd_fifo/slv_rd_fifo.vhd"
vhdl work "../../src/system/pcie/sys_pcie/ezdma2_ipbus_int/cores/ipbus_ctrl_dpram/ipbus_ctrl_dpram.vhd"
vhdl work "../../src/system/pcie/sys_pcie/ezdma2_ipbus_int/cores/ezdma2_ctrl_dpram/ezdma2_ctrl_dpram.vhd"
vhdl work "../../src/system/pcie/sys_pcie/ezdma2/pcie_ezdma_xilinx_full.vhd"
vhdl work "../../src/system/pcie/system_pcie_package.vhd"
vhdl work "../../src/system/mem/system_flash_sram_package.vhd"
vhdl work "../../src/system/ethernet/ipcore_dir/physical/v6_gtxwizard.vhd"
vhdl work "../../src/system/ethernet/ipcore_dir/common/sync_block.vhd"
vhdl work "../../../../ipbus_2_0_v1/firmware/slaves/hdl/syncreg_w.vhd"
vhdl work "../../../../ipbus_2_0_v1/firmware/slaves/hdl/syncreg_r.vhd"
vhdl work "../../../../ipbus_2_0_v1/firmware/ipbus_core/hdl/udp_tx_mux.vhd"
vhdl work "../../../../ipbus_2_0_v1/firmware/ipbus_core/hdl/udp_txtransactor_if_simple.vhd"
vhdl work "../../../../ipbus_2_0_v1/firmware/ipbus_core/hdl/udp_status_buffer.vhd"
vhdl work "../../../../ipbus_2_0_v1/firmware/ipbus_core/hdl/udp_rxtransactor_if_simple.vhd"
vhdl work "../../../../ipbus_2_0_v1/firmware/ipbus_core/hdl/udp_rxram_shim.vhd"
vhdl work "../../../../ipbus_2_0_v1/firmware/ipbus_core/hdl/udp_rxram_mux.vhd"
vhdl work "../../../../ipbus_2_0_v1/firmware/ipbus_core/hdl/udp_rarp_block.vhd"
vhdl work "../../../../ipbus_2_0_v1/firmware/ipbus_core/hdl/udp_packet_parser.vhd"
vhdl work "../../../../ipbus_2_0_v1/firmware/ipbus_core/hdl/udp_ipaddr_block.vhd"
vhdl work "../../../../ipbus_2_0_v1/firmware/ipbus_core/hdl/udp_dualportram_tx.vhd"
vhdl work "../../../../ipbus_2_0_v1/firmware/ipbus_core/hdl/udp_dualportram_rx.vhd"
vhdl work "../../../../ipbus_2_0_v1/firmware/ipbus_core/hdl/udp_dualportram.vhd"
vhdl work "../../../../ipbus_2_0_v1/firmware/ipbus_core/hdl/udp_do_rx_reset.vhd"
vhdl work "../../../../ipbus_2_0_v1/firmware/ipbus_core/hdl/udp_clock_crossing_if.vhd"
vhdl work "../../../../ipbus_2_0_v1/firmware/ipbus_core/hdl/udp_byte_sum.vhd"
vhdl work "../../../../ipbus_2_0_v1/firmware/ipbus_core/hdl/udp_build_status.vhd"
vhdl work "../../../../ipbus_2_0_v1/firmware/ipbus_core/hdl/udp_build_resend.vhd"
vhdl work "../../../../ipbus_2_0_v1/firmware/ipbus_core/hdl/udp_build_ping.vhd"
vhdl work "../../../../ipbus_2_0_v1/firmware/ipbus_core/hdl/udp_build_payload.vhd"
vhdl work "../../../../ipbus_2_0_v1/firmware/ipbus_core/hdl/udp_build_arp.vhd"
vhdl work "../../../../ipbus_2_0_v1/firmware/ipbus_core/hdl/udp_buffer_selector.vhd"
vhdl work "../../../../ipbus_2_0_v1/firmware/ipbus_core/hdl/transactor_sm.vhd"
vhdl work "../../../../ipbus_2_0_v1/firmware/ipbus_core/hdl/transactor_if.vhd"
vhdl work "../../../../ipbus_2_0_v1/firmware/ipbus_core/hdl/transactor_cfg.vhd"
vhdl work "../../src/user/usr/user_package_basic.vhd"
vhdl work "../../src/system/sys/system_package.vhd"
vhdl work "../../src/system/reset/clock_div_alt.vhd"
vhdl work "../../src/system/prbs/prbs.vhd"
vhdl work "../../src/system/pcie/sys_pcie/pcie_core/pcie_reset_delay_v6.vhd"
vhdl work "../../src/system/pcie/sys_pcie/pcie_core/pcie_clocking_v6.vhd"
vhdl work "../../src/system/pcie/sys_pcie/pcie_core/pcie_2_0_v6.vhd"
vhdl work "../../src/system/pcie/sys_pcie/ezdma2_ipbus_int/ezdma2_ipbus_int_ipbus.vhd"
vhdl work "../../src/system/pcie/sys_pcie/ezdma2_ipbus_int/ezdma2_ipbus_int_ezdma2.vhd"
vhdl work "../../src/system/pcie/sys_pcie/ezdma2_ipbus_int/ezdma2_ipbus_int_cdc.vhd"
vhdl work "../../src/system/pcie/sys_pcie/ezdma2/ezdma2_core_8dma_250mhz.vhd"
vhdl work "../../src/system/mem/sram/ipbus_addr_delay.vhd"
vhdl work "../../src/system/icap/icap_package.vhd"
vhdl work "../../src/system/i2c/i2c_ctrl.vhd"
vhdl work "../../src/system/i2c/i2c_bitwise.vhd"
vhdl work "../../src/system/ethernet/ipcore_dir/sgmii/v6_emac_v2_3_sgmii.vhd"
vhdl work "../../src/system/ethernet/ipcore_dir/physical/v6_gtxwizard_top.vhd"
vhdl work "../../src/system/ethernet/ipcore_dir/common/reset_sync.vhd"
vhdl work "../../src/system/ethernet/ipcore_dir/basex/v6_emac_v2_3_basex.vhd"
vhdl work "../../src/system/cdce/cdce_phase_mon_v2/dpram/ttclk_distributed_dpram.vhd"
vhdl work "../../../../ipbus_2_0_v1/firmware/slaves/hdl/ipbus_syncreg.vhd"
vhdl work "../../../../ipbus_2_0_v1/firmware/ipbus_core/hdl/udp_if_flat.vhd"
vhdl work "../../../../ipbus_2_0_v1/firmware/ipbus_core/hdl/trans_arb.vhd"
vhdl work "../../../../ipbus_2_0_v1/firmware/ipbus_core/hdl/transactor.vhd"
vhdl work "../../../../ipbus_2_0_v1/firmware/ipbus_core/hdl/stretcher.vhd"
vhdl work "../../../../ipbus_2_0_v1/firmware/ethernet/hdl/emac_hostbus_decl.vhd"
vhdl work "../../src/user/usr/user_addr_decode.vhd"
vhdl work "../../src/user/usr/slow_control/slow_test.vhd"
vhdl work "../../src/system/wb/wb_package.vhd"
vhdl work "../../src/system/sys/system_version_package.vhd"
vhdl work "../../src/system/pcie/sys_pcie/pcie_core/pcie_hip_x4_gen2_125ref.vhd"
vhdl work "../../src/system/pcie/sys_pcie/ezdma2_mux/ezdma2_mux.vhd"
vhdl work "../../src/system/pcie/sys_pcie/ezdma2_ipbus_int/ezdma2_ipbus_int.vhd"
vhdl work "../../src/system/pcie/sys_pcie/ezdma2/ezdma2_wrapper.vhd"
vhdl work "../../src/system/mem/sram/glib_sram_interface_ioControl.vhd"
vhdl work "../../src/system/mem/sram/glib_sram_interface_bist.vhd"
vhdl work "../../src/system/mem/sram/glib_sram_interface.vhd"
vhdl work "../../src/system/mem/flash/flash_interface.vhd"
vhdl work "../../src/system/ipbus/ipbus_glib/ipbus_addr_decode.vhd"
vhdl work "../../src/system/icap/icap_interface_ioControl.vhd"
vhdl work "../../src/system/icap/icap_interface_fsm.vhd"
vhdl work "../../src/system/icap/icap_interface.vhd"
vhdl work "../../src/system/i2c/i2c_master_core.vhd"
vhdl work "../../src/system/ethernet/ipcore_dir/sgmii/v6_emac_v2_3_sgmii/v6_emac_v2_3_sgmii_block.vhd"
vhdl work "../../src/system/ethernet/ipcore_dir/basex/v6_emac_v2_3_basex/v6_emac_v2_3_basex_block.vhd"
vhdl work "../../src/system/cdce/cdce_phase_mon_v2/pll/ttclk_mmcm.vhd"
vhdl work "../../src/system/cdce/cdce_phase_mon_v2/cdce_phase_mon_v2.vhd"
vhdl work "../../../../ipbus_2_0_v1/firmware/ipbus_core/hdl/ipbus_ctrl.vhd"
vhdl work "../../src/user/usr/user_version_package.vhd"
vhdl work "../../src/user/usr/slow_control/slow_control.vhd"
vhdl work "../../src/user/usr/i2c_master_dual.vhd"
vhdl work "../../src/user/modules/ipb_slaves/ipb_user_status_regs.vhd"
vhdl work "../../src/user/modules/ipb_slaves/ipb_user_control_regs.vhd"
vhdl work "../../src/system/wb/ipbus_to_wb_bridge.vhd"
vhdl work "../../src/system/spi/spi_master.vhd"
vhdl work "../../src/system/reset/rst_ctrl.vhd"
vhdl work "../../src/system/regs/system_regs.vhd"
vhdl work "../../src/system/pll/glib_pll.vhd"
vhdl work "../../src/system/pcie/sys_pcie/pcie_glib_wrapper.vhd"
vhdl work "../../src/system/pcie/pcie_or_eth_to_ipbus_arb/pcie_or_eth_to_ipbus_arb.vhd"
vhdl work "../../src/system/mem/sram/glib_sram_interface_wrapper.vhd"
vhdl work "../../src/system/mem/mem_buf/sram_flash_buffers.vhd"
vhdl work "../../src/system/mem/flash/flash_interface_wrapper.vhd"
vhdl work "../../src/system/ipbus/ipbus_glib/ip_mac_select.vhd"
vhdl work "../../src/system/ipbus/ipbus_glib/ipbus_user_fabric.vhd"
vhdl work "../../src/system/ipbus/ipbus_glib/ipbus_sys_fabric.vhd"
vhdl work "../../src/system/ipbus/ipbus_glib/ipbus_master_arb.vhd"
vhdl work "../../src/system/icap/icap_interface_wrapper.vhd"
vhdl work "../../src/system/i2c/i2c_slave_core_ro.vhd"
vhdl work "../../src/system/i2c/i2c_slave_core.vhd"
vhdl work "../../src/system/i2c/i2c_eeprom_read.vhd"
vhdl work "../../src/system/heartbeat/sys_heartbeat.vhd"
vhdl work "../../src/system/fmc/fmc_package.vhd"
vhdl work "../../src/system/ethernet/eth_v6_sgmii_glib.vhd"
vhdl work "../../src/system/ethernet/eth_v6_basex_glib.vhd"
vhdl work "../../src/system/cdce/cdce_synchronizer.vhd"
vhdl work "../../src/system/cdce/cdce_phase_mon_v2/cdce_phase_mon_v2_wrapper.vhd"
vhdl work "../../src/user/usr/user_logic_basic.vhd"
vhdl work "../../src/system/sys/system_core.vhd"
vhdl work "../../src/system/sys/glib_top.vhd"
