vhdl work "../../../../ipbus_2_0_v1/firmware/ipbus_core/hdl/ipbus_package.vhd"
vhdl work "../../../../ipbus_2_0_v1/firmware/slaves/hdl/ipbus_ctrlreg_sync.vhd"
vhdl work "../../src/system/sys/system_package.vhd"
vhdl work "../../src/user/testing/ipbus_ctrlreg_sync_tb.vhd"
