vhdl work "../../src/system/i2c/i2c_ctrl.vhd"
vhdl work "../../src/system/i2c/i2c_bitwise.vhd"
vhdl work "../../src/system/sys/system_package.vhd"
vhdl work "../../src/system/i2c/i2c_master_core.vhd"
vhdl work "../../src/user/usr/i2c_master_dual.vhd"
vhdl work "../../src/user/testing/i2c_master_tb.vhd"
