vhdl work "../../src/user/clk_gen/clk_gen.vhd"
vhdl work "../../src/user/chipscope/chipscope.vhd"
vhdl work "../../src/user/chipscope/icon_inst.vhd"
vhdl work "../../src/system/i2c/i2c_ctrl.vhd"
vhdl work "../../src/system/i2c/i2c_bitwise.vhd"
vhdl work "../../../../ipbus_2_0_v1/firmware/ipbus_core/hdl/ipbus_package.vhd"
vhdl work "../../src/user/usr/user_sys_pcie_constants_package.vhd"
vhdl work "../../src/user/command_fifo/command_fifo.vhd"
vhdl work "../../src/system/sys/system_package.vhd"
vhdl work "../../src/system/i2c/i2c_master_core.vhd"
vhdl work "../../src/user/usr/user_version_package.vhd"
vhdl work "../../src/user/usr/user_package_basic.vhd"
vhdl work "../../src/user/usr/slow_control/slow_controller.vhd"
vhdl work "../../src/user/usr/slow_control/ipb_slow_control_regs.vhd"
vhdl work "../../src/user/usr/i2c_master_dual.vhd"
vhdl work "../../src/user/modules/ipb_slaves/ipb_user_status_regs.vhd"
vhdl work "../../src/user/modules/ipb_slaves/ipb_user_control_regs.vhd"
vhdl work "../../src/system/wb/wb_package.vhd"
vhdl work "../../src/system/pcie/system_pcie_package.vhd"
vhdl work "../../src/system/mem/system_flash_sram_package.vhd"
vhdl work "../../src/system/fmc/fmc_package.vhd"
vhdl work "../../src/user/usr/user_logic_basic.vhd"
